2019-08-06 08:09:46,765 INFO ru.dfsystems.savepost.controller.SavePostController [http-nio-8080-exec-1] POST:{"name": "msi", "ip": "192.168.1.20"}
"2019-08-06 11:02:15 [main] INFO  r.d.s.SavepostApplicationTests - Starting SavepostApplicationTests on DESKTOP-84U9CAJ with PID 12524 (started by vasic in C:\prog\savepost)
""2019-08-06 11:02:15 [main] INFO  r.d.s.SavepostApplicationTests - No active profile set, falling back to default profiles: default
""2019-08-06 11:02:16 [main] INFO  o.s.s.c.ThreadPoolTaskExecutor - Initializing ExecutorService 'applicationTaskExecutor'
""2019-08-06 11:02:16 [main] INFO  r.d.s.SavepostApplicationTests - Started SavepostApplicationTests in 1.081 seconds (JVM running for 1.561)
""2019-08-06 11:02:16 [Thread-2] INFO  o.s.s.c.ThreadPoolTaskExecutor - Shutting down ExecutorService 'applicationTaskExecutor'
"Starting SavepostApplicationTests on DESKTOP-84U9CAJ with PID 4812 (started by vasic in C:\prog\savepost)
No active profile set, falling back to default profiles: default
Initializing ExecutorService 'applicationTaskExecutor'
Started SavepostApplicationTests in 1.064 seconds (JVM running for 1.545)
Shutting down ExecutorService 'applicationTaskExecutor'
Cannot set level 'NONE' for 'org.springframework.web'
Starting SavepostApplicationTests on DESKTOP-84U9CAJ with PID 7864 (started by vasic in C:\prog\savepost)
No active profile set, falling back to default profiles: default
Initializing ExecutorService 'applicationTaskExecutor'
Started SavepostApplicationTests in 1.094 seconds (JVM running for 1.582)
Shutting down ExecutorService 'applicationTaskExecutor'
